{	"name": "CCS attack",
	"description": "CVE-2014-224. CCS attack. An attacker can force the use of weak keying material in OpenSSL SSL/TLS clients and servers. This can be exploited by a Man-in-the-middle (MITM) attack where the attacker can decrypt and modify traffic from the attacked client and server.The attack can only be performed between a vulnerable client *and* server. OpenSSL clients are vulnerable in all versions of OpenSSL. Servers are only known to be vulnerable in OpenSSL 1.0.1 and 1.0.2-beta1. Users of OpenSSL servers earlier than 1.0.1 are advised to upgrade as a precaution.",
	"affected_versions": "0.9.8:0.9.8y,1.0.0:1.0.0l,1.0.1:1.0.1g",
	"access_complexity": 2,
	"destructive": 2,
  "lib": "probe_CCS_cpp.so",
  "confidence": 6,
  "dependency": ""
 }