{	"name": "Stack test",
	"description": "Send malformed messages and check response to try and determine if the stack used is not OpenSSL. Status set to Affected means that the stack is probably not OpenSSL. Currently performs the following tests:\n-- Test 0: Sets the payload length in the record header of the ClientHello message to 0xff 0xff. OpenSSL servers are expected to respond with a RECORD_OVERFLOW alert.\n-- Test 1: Sets the message length in the ClientHello message to 0x00 0x00. OpenSSL servers are expected to respond with a PROTOCOL_VERSION or DECODE_ERROR alert.\n-- Test 2: Sets the message length in the ClientHello message to 0xff 0xff. OpenSSL servers are expected to respond with a ILLEGAL_PARAMETER alert.\n-- Test 3: Sets the compressions methods supported to 0x64 and 0x65 which are unassigned according to IANA. OpenSSL servers are expected to respond with a DECODE_ERROR alert.\n-- Test 4: Sets the payload length in the record header of the ClientKeyExchange message to 0x00 0x00. OpenSSL servers are expected to respond with a PROTOCOL_VERSION alert.\n-- Test 5: Sets the cipher suites to only be 0xfe 0xee which is unassigned according to IANA. OpenSSL servers are expected to reset the connection.",
	"affected_versions": "",
	"access_complexity": 1,
	"destructive": 1,
  "lib": "probe_stack_cpp.so",
  "confidence": 0,
  "dependency": ""
}